 192 1
 157 2
 819 3
2627 4
4166 5
5166 6
5791 7
5576 8
5266 9
4907 10
4450 11
3938 12
3567 13
3190 14
2874 15
2604 16
2390 17
2110 18
2055 19
1952 20
1822 21
1744 22
1711 23
1689 24
1563 25
1649 26
1561 27
1610 28
1702 29
1693 30
1699 31
1767 32
1744 33
1841 34
1877 35
1978 36
2012 37
1936 38
1995 39
2157 40
2157 41
2073 42
2186 43
2261 44
2244 45
2286 46
2432 47
2331 48
2536 49
2429 50
2460 51
2469 52
2483 53
2611 54
2598 55
2698 56
2778 57
2864 58
2796 59
2745 60
2823 61
2863 62
2868 63
2885 64
2913 65
2876 66
3005 67
2888 68
2856 69
2818 70
2934 71
2896 72
2813 73
2931 74
2949 75
2804 76
2808 77
2913 78
2836 79
2861 80
2837 81
2818 82
2845 83
2827 84
2791 85
2870 86
2770 87
2808 88
2725 89
2795 90
2686 91
2780 92
2746 93
2753 94
2745 95
2764 96
2756 97
2752 98
2726 99
2695 100
2604 101
2714 102
2697 103
2654 104
2720 105
2652 106
2584 107
2691 108
2705 109
2648 110
2756 111
2570 112
2560 113
2609 114
2560 115
2455 116
2513 117
2554 118
2574 119
2505 120
2593 121
2513 122
2620 123
2629 124
2609 125
2544 126
2463 127
2497 128
2608 129
2424 130
2475 131
2463 132
2445 133
2448 134
2438 135
2432 136
2466 137
2497 138
2435 139
2409 140
2425 141
2476 142
2384 143
2415 144
2455 145
2470 146
2489 147
2438 148
2433 149
2385 150
2435 151
2481 152
2370 153
2425 154
2475 155
2430 156
2393 157
2305 158
2376 159
2376 160
2325 161
2300 162
2258 163
2278 164
2264 165
2282 166
2345 167
2307 168
2218 169
2260 170
2301 171
2330 172
2252 173
2231 174
2179 175
2305 176
2323 177
2243 178
2188 179
2191 180
2261 181
2280 182
2202 183
2187 184
2201 185
2211 186
2302 187
2188 188
2186 189
2176 190
2223 191
2091 192
2174 193
2196 194
2182 195
2143 196
2096 197
2219 198
2140 199
2245 200
2126 201
2171 202
2086 203
2099 204
2073 205
2133 206
2131 207
1968 208
2092 209
2094 210
1975 211
2066 212
2096 213
2084 214
1957 215
2018 216
2013 217
2117 218
2113 219
2011 220
2092 221
2054 222
2054 223
1925 224
2012 225
2007 226
2015 227
1976 228
1998 229
1992 230
1958 231
1979 232
1991 233
1915 234
2039 235
1943 236
1983 237
2009 238
1965 239
1946 240
1924 241
1878 242
2012 243
1925 244
1899 245
1916 246
1928 247
1948 248
1877 249
1967 250
1964 251
1859 252
1995 253
2031 254
1962 255
1918 256
1926 257
1888 258
1860 259
1900 260
1905 261
1851 262
1878 263
1833 264
1890 265
1973 266
1848 267
1851 268
1876 269
1874 270
1811 271
1838 272
1946 273
1850 274
1883 275
1865 276
1776 277
1808 278
1844 279
1853 280
1776 281
1860 282
1866 283
1788 284
1763 285
1793 286
1921 287
1820 288
1779 289
1700 290
1804 291
1827 292
1826 293
1786 294
1771 295
1840 296
1837 297
1775 298
1830 299
1816 300
1799 301
1821 302
1820 303
1803 304
1743 305
1835 306
1705 307
1785 308
1760 309
1699 310
1729 311
1734 312
1758 313
1787 314
1751 315
1711 316
1676 317
1776 318
1738 319
1771 320
1751 321
1690 322
1757 323
1714 324
1739 325
1725 326
1738 327
1747 328
1712 329
1692 330
1640 331
1708 332
1668 333
1735 334
1739 335
1711 336
1707 337
1761 338
1659 339
1698 340
1689 341
1704 342
1773 343
1736 344
1675 345
1751 346
1654 347
1671 348
1672 349
1681 350
1651 351
1621 352
1546 353
1681 354
1575 355
1599 356
1584 357
1762 358
1621 359
1666 360
1605 361
1551 362
1613 363
1637 364
1569 365
1580 366
1574 367
1522 368
1623 369
1569 370
1591 371
1597 372
1623 373
1589 374
1563 375
1582 376
1594 377
1686 378
1531 379
1625 380
1591 381
1584 382
1581 383
1499 384
1569 385
1552 386
1574 387
1583 388
1549 389
1559 390
1524 391
1591 392
1533 393
1491 394
1521 395
1554 396
1518 397
1482 398
1509 399
1504 400
1548 401
1574 402
1530 403
1535 404
1551 405
1459 406
1448 407
1567 408
1547 409
1490 410
1560 411
1409 412
1541 413
1474 414
1508 415
1460 416
1491 417
1492 418
1437 419
1448 420
1472 421
1440 422
1462 423
1515 424
1495 425
1478 426
1523 427
1436 428
1507 429
1466 430
1460 431
1391 432
1458 433
1472 434
1474 435
1413 436
1438 437
1529 438
1368 439
1412 440
1401 441
1459 442
1426 443
1459 444
1424 445
1377 446
1364 447
1344 448
1495 449
1410 450
1448 451
1436 452
1454 453
1419 454
1402 455
1438 456
1501 457
1412 458
1405 459
1400 460
1399 461
1383 462
1434 463
1378 464
1337 465
1359 466
1356 467
1388 468
1439 469
1314 470
1371 471
1391 472
1406 473
1370 474
1377 475
1274 476
1369 477
1338 478
1356 479
1425 480
1352 481
1334 482
1308 483
1415 484
1383 485
1327 486
1339 487
1384 488
1333 489
1298 490
1264 491
1320 492
1374 493
1358 494
1359 495
1291 496
1311 497
1297 498
1296 499
1333 500
1320 501
1275 502
1379 503
1313 504
1324 505
1334 506
1279 507
1268 508
1326 509
1236 510
1228 511
1336 512
1278 513
1267 514
1252 515
1269 516
1320 517
1324 518
1297 519
1264 520
1299 521
1245 522
1277 523
1249 524
1229 525
1284 526
1324 527
1268 528
1294 529
1199 530
1245 531
1224 532
1248 533
1240 534
1224 535
1241 536
1216 537
1195 538
1263 539
1187 540
1185 541
1223 542
1165 543
1257 544
1223 545
1221 546
1204 547
1208 548
1213 549
1229 550
1207 551
1229 552
1261 553
1303 554
1236 555
1184 556
1151 557
1183 558
1215 559
1167 560
1178 561
1222 562
1221 563
1197 564
1090 565
1109 566
1202 567
1223 568
1144 569
1200 570
1151 571
1193 572
1167 573
1194 574
1149 575
1162 576
1195 577
1138 578
1112 579
1165 580
1148 581
1144 582
1097 583
1094 584
1197 585
1138 586
1179 587
1240 588
1102 589
1152 590
1127 591
1122 592
1141 593
1120 594
1139 595
1063 596
1108 597
1130 598
1059 599
1170 600
1087 601
1107 602
1125 603
1086 604
1138 605
1079 606
1110 607
1141 608
1119 609
1096 610
1073 611
1088 612
1119 613
1148 614
1116 615
1103 616
1059 617
1077 618
1047 619
1052 620
1062 621
1071 622
1089 623
1053 624
1092 625
1055 626
1082 627
1100 628
1072 629
1035 630
1046 631
1004 632
1069 633
1043 634
1068 635
1039 636
1080 637
1023 638
1068 639
1092 640
1050 641
1029 642
1058 643
1066 644
1059 645
1050 646
1050 647
1014 648
1007 649
1011 650
1054 651
1049 652
1026 653
1020 654
1087 655
 966 656
1028 657
 991 658
1007 659
1023 660
1011 661
1016 662
 976 663
 970 664
1005 665
 961 666
1010 667
 964 668
1030 669
1032 670
1008 671
 995 672
1036 673
 994 674
1052 675
 961 676
 937 677
1002 678
1000 679
 932 680
 999 681
1031 682
 955 683
 948 684
 923 685
 918 686
 951 687
 956 688
1003 689
 937 690
 916 691
1007 692
 957 693
 889 694
 921 695
 941 696
 953 697
 962 698
 943 699
 930 700
 897 701
 941 702
 952 703
 920 704
 929 705
 920 706
 950 707
 915 708
 863 709
 983 710
 895 711
 908 712
 960 713
 959 714
 904 715
 894 716
 931 717
 907 718
 932 719
 889 720
 921 721
 863 722
 928 723
 853 724
 897 725
 939 726
 884 727
 898 728
 967 729
 851 730
 848 731
 873 732
 935 733
 943 734
 902 735
 932 736
 814 737
 940 738
 916 739
 857 740
 857 741
 865 742
 918 743
 905 744
 862 745
 895 746
 850 747
 881 748
 831 749
 857 750
 877 751
 906 752
 836 753
 837 754
 875 755
 870 756
 822 757
 810 758
 887 759
 854 760
 874 761
 868 762
 793 763
 811 764
 872 765
 875 766
 882 767
 850 768
 835 769
 850 770
 864 771
 867 772
 877 773
 800 774
 836 775
 847 776
 781 777
 789 778
 874 779
 809 780
 808 781
 812 782
 811 783
 788 784
 805 785
 813 786
 778 787
 772 788
 870 789
 845 790
 831 791
 801 792
 791 793
 784 794
 813 795
 817 796
 823 797
 815 798
 817 799
 794 800
 833 801
 840 802
 767 803
 757 804
 787 805
 769 806
 783 807
 770 808
 798 809
 736 810
 811 811
 757 812
 764 813
 768 814
 759 815
 747 816
 736 817
 788 818
 760 819
 744 820
 722 821
 793 822
 776 823
 754 824
 743 825
 744 826
 735 827
 760 828
 758 829
 806 830
 769 831
 802 832
 751 833
 771 834
 747 835
 764 836
 806 837
 749 838
 726 839
 747 840
 741 841
 776 842
 811 843
 720 844
 717 845
 738 846
 708 847
 747 848
 744 849
 686 850
 784 851
 768 852
 718 853
 682 854
 671 855
 696 856
 757 857
 717 858
 670 859
 711 860
 707 861
 720 862
 759 863
 695 864
 682 865
 702 866
 700 867
 706 868
 715 869
 746 870
 668 871
 664 872
 673 873
 662 874
 684 875
 667 876
 703 877
 703 878
 686 879
 708 880
 686 881
 704 882
 700 883
 657 884
 667 885
 703 886
 692 887
 671 888
 686 889
 699 890
 739 891
 671 892
 683 893
 673 894
 714 895
 645 896
 637 897
 629 898
 677 899
 647 900
 640 901
 679 902
 652 903
 706 904
 674 905
 614 906
 627 907
 633 908
 677 909
 647 910
 663 911
 732 912
 662 913
 614 914
 653 915
 712 916
 676 917
 671 918
 642 919
 642 920
 656 921
 629 922
 613 923
 622 924
 641 925
 646 926
 601 927
 662 928
 597 929
 631 930
 619 931
 664 932
 594 933
 683 934
 666 935
 612 936
 619 937
 592 938
 620 939
 589 940
 633 941
 611 942
 640 943
 651 944
 600 945
 609 946
 610 947
 645 948
 645 949
 591 950
 606 951
 593 952
 636 953
 598 954
 608 955
 580 956
 579 957
 597 958
 584 959
 582 960
 605 961
 615 962
 598 963
 561 964
 576 965
 613 966
 574 967
 569 968
 601 969
 584 970
 548 971
 576 972
 595 973
 589 974
 572 975
 602 976
 557 977
 585 978
 598 979
 572 980
 587 981
 592 982
 573 983
 597 984
 565 985
 556 986
 567 987
 613 988
 604 989
 575 990
 584 991
 582 992
 586 993
 507 994
 529 995
 591 996
 557 997
 599 998
 591 999
 554 1000
 591 1001
 520 1002
 537 1003
 564 1004
 633 1005
 520 1006
 524 1007
 551 1008
 571 1009
 542 1010
 522 1011
 499 1012
 519 1013
 561 1014
 535 1015
 520 1016
 558 1017
 571 1018
 549 1019
 529 1020
 545 1021
 502 1022
 531 1023
 543 1024
 525 1025
 561 1026
 520 1027
 547 1028
 565 1029
 496 1030
 524 1031
 511 1032
 553 1033
 520 1034
 506 1035
 498 1036
 522 1037
 502 1038
 564 1039
 522 1040
 549 1041
 560 1042
 494 1043
 499 1044
 534 1045
 489 1046
 524 1047
 551 1048
 521 1049
 503 1050
 548 1051
 494 1052
 531 1053
 486 1054
 520 1055
 513 1056
 504 1057
 456 1058
 498 1059
 498 1060
 497 1061
 497 1062
 535 1063
 526 1064
 503 1065
 486 1066
 494 1067
 471 1068
 494 1069
 475 1070
 480 1071
 508 1072
 478 1073
 534 1074
 509 1075
 471 1076
 494 1077
 465 1078
 472 1079
 494 1080
 495 1081
 506 1082
 505 1083
 509 1084
 466 1085
 456 1086
 493 1087
 485 1088
 498 1089
 464 1090
 480 1091
 443 1092
 458 1093
 473 1094
 462 1095
 480 1096
 503 1097
 479 1098
 480 1099
 505 1100
 453 1101
 469 1102
 435 1103
 459 1104
 458 1105
 452 1106
 429 1107
 489 1108
 484 1109
 451 1110
 457 1111
 473 1112
 438 1113
 425 1114
 435 1115
 480 1116
 449 1117
 469 1118
 470 1119
 464 1120
 435 1121
 477 1122
 491 1123
 480 1124
 515 1125
 454 1126
 478 1127
 449 1128
 440 1129
 456 1130
 473 1131
 504 1132
 429 1133
 460 1134
 425 1135
 444 1136
 435 1137
 450 1138
 435 1139
 432 1140
 453 1141
 394 1142
 449 1143
 486 1144
 457 1145
 416 1146
 449 1147
 413 1148
 379 1149
 448 1150
 406 1151
 437 1152
 421 1153
 433 1154
 454 1155
 454 1156
 461 1157
 400 1158
 376 1159
 418 1160
 436 1161
 450 1162
 429 1163
 448 1164
 414 1165
 399 1166
 435 1167
 416 1168
 391 1169
 392 1170
 386 1171
 449 1172
 429 1173
 457 1174
 402 1175
 409 1176
 414 1177
 392 1178
 407 1179
 412 1180
 375 1181
 384 1182
 410 1183
 431 1184
 405 1185
 393 1186
 420 1187
 441 1188
 395 1189
 399 1190
 401 1191
 399 1192
 420 1193
 390 1194
 411 1195
 414 1196
 390 1197
 392 1198
 398 1199
 395 1200
 374 1201
 426 1202
 380 1203
 394 1204
 415 1205
 373 1206
 384 1207
 409 1208
 392 1209
 351 1210
 408 1211
 380 1212
 380 1213
 400 1214
 366 1215
 374 1216
 369 1217
 392 1218
 380 1219
 414 1220
 413 1221
 363 1222
 387 1223
 358 1224
 375 1225
 362 1226
 370 1227
 384 1228
 385 1229
 367 1230
 375 1231
 412 1232
 419 1233
 362 1234
 395 1235
 392 1236
 392 1237
 382 1238
 355 1239
 373 1240
 344 1241
 382 1242
 349 1243
 368 1244
 390 1245
 378 1246
 371 1247
 363 1248
 358 1249
 327 1250
 391 1251
 333 1252
 356 1253
 346 1254
 377 1255
 370 1256
 362 1257
 347 1258
 359 1259
 345 1260
 342 1261
 370 1262
 338 1263
 370 1264
 353 1265
 339 1266
 345 1267
 344 1268
 349 1269
 363 1270
 369 1271
 365 1272
 373 1273
 336 1274
 348 1275
 337 1276
 364 1277
 390 1278
 366 1279
 342 1280
 338 1281
 331 1282
 370 1283
 346 1284
 336 1285
 345 1286
 350 1287
 374 1288
 350 1289
 344 1290
 352 1291
 335 1292
 327 1293
 346 1294
 340 1295
 340 1296
 354 1297
 344 1298
 317 1299
 339 1300
 349 1301
 337 1302
 298 1303
 319 1304
 316 1305
 304 1306
 335 1307
 323 1308
 326 1309
 349 1310
 324 1311
 304 1312
 329 1313
 348 1314
 329 1315
 327 1316
 281 1317
 309 1318
 329 1319
 313 1320
 310 1321
 312 1322
 306 1323
 306 1324
 352 1325
 323 1326
 338 1327
 312 1328
 303 1329
 297 1330
 317 1331
 345 1332
 313 1333
 300 1334
 294 1335
 330 1336
 332 1337
 334 1338
 305 1339
 311 1340
 299 1341
 322 1342
 306 1343
 342 1344
 297 1345
 347 1346
 292 1347
 299 1348
 310 1349
 297 1350
 281 1351
 303 1352
 305 1353
 304 1354
 297 1355
 289 1356
 307 1357
 292 1358
 312 1359
 318 1360
 293 1361
 293 1362
 269 1363
 287 1364
 272 1365
 298 1366
 278 1367
 329 1368
 300 1369
 300 1370
 283 1371
 328 1372
 302 1373
 281 1374
 270 1375
 311 1376
 319 1377
 318 1378
 270 1379
 276 1380
 309 1381
 309 1382
 308 1383
 284 1384
 308 1385
 275 1386
 301 1387
 310 1388
 275 1389
 279 1390
 306 1391
 293 1392
 272 1393
 286 1394
 261 1395
 287 1396
 305 1397
 283 1398
 306 1399
 306 1400
 277 1401
 272 1402
 255 1403
 278 1404
 304 1405
 271 1406
 293 1407
 280 1408
 289 1409
 265 1410
 310 1411
 328 1412
 262 1413
 242 1414
 269 1415
 291 1416
 256 1417
 274 1418
 285 1419
 279 1420
 266 1421
 268 1422
 277 1423
 249 1424
 232 1425
 286 1426
 263 1427
 269 1428
 262 1429
 220 1430
 271 1431
 275 1432
 281 1433
 262 1434
 267 1435
 250 1436
 251 1437
 248 1438
 233 1439
 285 1440
 255 1441
 257 1442
 290 1443
 268 1444
 262 1445
 259 1446
 252 1447
 242 1448
 265 1449
 281 1450
 260 1451
 262 1452
 263 1453
 291 1454
 241 1455
 254 1456
 218 1457
 274 1458
 258 1459
 284 1460
 254 1461
 276 1462
 253 1463
 265 1464
 240 1465
 232 1466
 231 1467
 230 1468
 242 1469
 251 1470
 284 1471
 236 1472
 263 1473
 264 1474
 235 1475
 243 1476
 229 1477
 236 1478
 230 1479
 242 1480
 210 1481
 251 1482
 266 1483
 225 1484
 268 1485
 231 1486
 230 1487
 260 1488
 225 1489
 268 1490
 222 1491
 227 1492
 241 1493
 242 1494
 268 1495
 218 1496
 224 1497
 244 1498
 255 1499
 227 1500
 230 1501
 236 1502
 209 1503
 230 1504
 213 1505
 238 1506
 252 1507
 258 1508
 243 1509
 239 1510
 226 1511
 274 1512
 232 1513
 241 1514
 210 1515
 233 1516
 231 1517
 215 1518
 221 1519
 215 1520
 232 1521
 214 1522
 236 1523
 230 1524
 271 1525
 256 1526
 252 1527
 219 1528
 241 1529
 214 1530
 203 1531
 229 1532
 212 1533
 233 1534
 228 1535
 231 1536
 226 1537
 244 1538
 254 1539
 210 1540
 232 1541
 238 1542
 239 1543
 234 1544
 228 1545
 246 1546
 208 1547
 198 1548
 236 1549
 231 1550
 217 1551
 220 1552
 220 1553
 207 1554
 253 1555
 205 1556
 212 1557
 229 1558
 201 1559
 225 1560
 236 1561
 221 1562
 202 1563
 214 1564
 225 1565
 213 1566
 220 1567
 213 1568
 215 1569
 217 1570
 207 1571
 214 1572
 187 1573
 212 1574
 196 1575
 234 1576
 196 1577
 207 1578
 197 1579
 223 1580
 220 1581
 198 1582
 212 1583
 185 1584
 211 1585
 209 1586
 227 1587
 222 1588
 215 1589
 184 1590
 198 1591
 208 1592
 226 1593
 201 1594
 198 1595
 192 1596
 212 1597
 179 1598
 202 1599
 203 1600
 158 1601
 196 1602
 207 1603
 224 1604
 209 1605
 207 1606
 217 1607
 196 1608
 188 1609
 198 1610
 170 1611
 182 1612
 174 1613
 162 1614
 182 1615
 169 1616
 206 1617
 198 1618
 207 1619
 212 1620
 196 1621
 180 1622
 201 1623
 170 1624
 197 1625
 184 1626
 224 1627
 226 1628
 194 1629
 183 1630
 184 1631
 199 1632
 152 1633
 190 1634
 197 1635
 157 1636
 188 1637
 174 1638
 202 1639
 189 1640
 195 1641
 173 1642
 203 1643
 184 1644
 198 1645
 188 1646
 159 1647
 182 1648
 196 1649
 193 1650
 174 1651
 157 1652
 184 1653
 169 1654
 213 1655
 185 1656
 156 1657
 153 1658
 208 1659
 168 1660
 199 1661
 176 1662
 168 1663
 183 1664
 187 1665
 195 1666
 188 1667
 163 1668
 182 1669
 177 1670
 191 1671
 186 1672
 181 1673
 194 1674
 172 1675
 181 1676
 180 1677
 203 1678
 169 1679
 184 1680
 152 1681
 163 1682
 189 1683
 175 1684
 178 1685
 162 1686
 173 1687
 188 1688
 188 1689
 167 1690
 181 1691
 167 1692
 166 1693
 176 1694
 162 1695
 185 1696
 168 1697
 185 1698
 191 1699
 167 1700
 198 1701
 175 1702
 155 1703
 200 1704
 165 1705
 166 1706
 173 1707
 159 1708
 178 1709
 175 1710
 159 1711
 173 1712
 142 1713
 155 1714
 165 1715
 158 1716
 154 1717
 173 1718
 164 1719
 155 1720
 182 1721
 160 1722
 164 1723
 159 1724
 156 1725
 166 1726
 149 1727
 155 1728
 195 1729
 149 1730
 161 1731
 181 1732
 174 1733
 174 1734
 149 1735
 141 1736
 175 1737
 151 1738
 174 1739
 172 1740
 158 1741
 172 1742
 156 1743
 159 1744
 169 1745
 154 1746
 173 1747
 165 1748
 144 1749
 163 1750
 166 1751
 160 1752
 191 1753
 142 1754
 165 1755
 159 1756
 163 1757
 143 1758
 164 1759
 148 1760
 163 1761
 158 1762
 153 1763
 168 1764
 173 1765
 146 1766
 152 1767
 139 1768
 142 1769
 183 1770
 146 1771
 143 1772
 164 1773
 141 1774
 162 1775
 161 1776
 141 1777
 141 1778
 147 1779
 146 1780
 157 1781
 150 1782
 145 1783
 133 1784
 158 1785
 162 1786
 166 1787
 158 1788
 139 1789
 153 1790
 171 1791
 146 1792
 154 1793
 139 1794
 142 1795
 158 1796
 131 1797
 152 1798
 165 1799
 123 1800
 151 1801
 138 1802
 141 1803
 132 1804
 152 1805
 143 1806
 157 1807
 139 1808
 141 1809
 155 1810
 147 1811
 158 1812
 134 1813
 130 1814
 146 1815
 143 1816
 142 1817
 135 1818
 125 1819
 154 1820
 152 1821
 143 1822
 127 1823
 142 1824
 153 1825
 138 1826
 154 1827
 149 1828
 133 1829
 109 1830
 134 1831
 147 1832
 112 1833
 175 1834
 136 1835
 146 1836
 138 1837
 147 1838
 131 1839
 141 1840
 134 1841
 145 1842
 130 1843
 131 1844
 125 1845
 131 1846
 134 1847
 124 1848
 144 1849
 118 1850
 117 1851
 112 1852
 123 1853
 138 1854
 143 1855
 120 1856
 125 1857
 131 1858
 149 1859
 132 1860
 144 1861
 114 1862
 115 1863
 123 1864
 137 1865
 127 1866
 115 1867
 131 1868
 130 1869
 116 1870
 123 1871
 135 1872
 142 1873
 142 1874
 131 1875
 131 1876
 129 1877
 141 1878
 114 1879
 116 1880
 124 1881
 142 1882
 114 1883
 135 1884
 145 1885
 136 1886
 120 1887
  97 1888
 148 1889
 116 1890
 149 1891
 116 1892
 118 1893
 109 1894
 130 1895
 145 1896
 113 1897
 136 1898
 125 1899
 100 1900
 118 1901
 128 1902
 122 1903
 123 1904
 133 1905
 108 1906
 139 1907
 124 1908
  94 1909
 113 1910
 119 1911
 115 1912
 123 1913
 103 1914
 147 1915
 128 1916
 128 1917
 112 1918
 119 1919
 122 1920
 106 1921
 122 1922
 111 1923
 108 1924
 126 1925
 128 1926
 117 1927
 119 1928
 127 1929
 130 1930
 118 1931
 119 1932
 121 1933
 113 1934
 129 1935
 122 1936
 122 1937
 112 1938
 113 1939
 124 1940
 125 1941
 126 1942
 117 1943
 103 1944
 113 1945
 105 1946
 109 1947
 124 1948
 119 1949
 121 1950
 114 1951
 116 1952
 120 1953
 120 1954
 116 1955
 124 1956
 114 1957
 123 1958
 101 1959
 104 1960
 111 1961
 119 1962
 114 1963
  88 1964
 121 1965
 121 1966
 122 1967
 113 1968
 122 1969
 109 1970
 121 1971
 103 1972
 108 1973
 119 1974
  95 1975
 123 1976
 116 1977
 122 1978
 119 1979
 112 1980
 111 1981
 112 1982
 102 1983
  98 1984
 106 1985
 123 1986
 105 1987
 100 1988
 103 1989
 108 1990
 104 1991
 110 1992
 120 1993
 103 1994
 105 1995
 113 1996
 101 1997
 108 1998
 108 1999
 102 2000
 114 2001
 116 2002
 104 2003
 107 2004
  87 2005
 110 2006
  83 2007
 105 2008
 108 2009
 104 2010
 108 2011
 107 2012
 100 2013
  98 2014
 109 2015
 107 2016
 100 2017
 103 2018
  91 2019
 101 2020
  98 2021
  99 2022
 110 2023
  93 2024
 110 2025
 105 2026
 103 2027
 100 2028
  92 2029
 108 2030
 110 2031
 107 2032
  90 2033
  82 2034
  98 2035
 106 2036
 108 2037
  88 2038
 106 2039
  85 2040
  94 2041
  95 2042
 100 2043
  83 2044
 112 2045
  77 2046
  93 2047
  81 2048
 102 2049
 105 2050
  89 2051
  87 2052
  84 2053
  92 2054
 107 2055
  92 2056
 112 2057
 102 2058
  91 2059
  84 2060
 101 2061
 105 2062
 110 2063
  92 2064
  91 2065
  88 2066
  83 2067
  87 2068
 107 2069
  84 2070
 107 2071
  97 2072
  95 2073
  74 2074
 106 2075
 111 2076
  86 2077
  87 2078
 106 2079
  97 2080
  83 2081
 104 2082
 103 2083
  86 2084
  97 2085
 106 2086
  81 2087
 101 2088
  84 2089
  93 2090
  88 2091
 102 2092
 100 2093
  83 2094
  95 2095
  79 2096
  92 2097
  93 2098
 114 2099
  89 2100
  87 2101
  94 2102
 102 2103
 101 2104
  85 2105
  71 2106
  81 2107
  97 2108
  88 2109
 100 2110
  83 2111
  89 2112
  86 2113
  97 2114
  89 2115
  77 2116
  85 2117
  94 2118
  79 2119
  85 2120
  68 2121
  73 2122
  73 2123
  84 2124
  79 2125
  99 2126
 105 2127
  84 2128
  95 2129
 106 2130
  78 2131
  74 2132
  78 2133
  75 2134
 107 2135
 102 2136
  78 2137
  78 2138
  94 2139
  81 2140
  88 2141
  85 2142
  85 2143
  71 2144
  73 2145
 104 2146
  79 2147
  84 2148
  75 2149
  80 2150
  94 2151
  79 2152
  75 2153
  90 2154
  74 2155
  83 2156
  95 2157
  86 2158
  66 2159
  89 2160
  84 2161
  92 2162
  79 2163
  66 2164
  88 2165
  86 2166
  86 2167
  77 2168
  75 2169
  88 2170
  89 2171
  87 2172
  87 2173
  72 2174
  75 2175
  76 2176
  80 2177
  67 2178
  66 2179
  85 2180
  82 2181
  82 2182
  79 2183
  60 2184
  91 2185
  82 2186
  98 2187
  89 2188
  76 2189
  70 2190
  69 2191
  80 2192
  89 2193
  80 2194
  79 2195
  69 2196
  78 2197
  77 2198
  79 2199
  54 2200
  67 2201
  85 2202
  68 2203
  71 2204
  80 2205
  83 2206
  78 2207
  80 2208
  78 2209
  72 2210
  67 2211
  78 2212
  86 2213
  80 2214
  74 2215
  65 2216
  75 2217
  71 2218
  79 2219
  82 2220
  78 2221
  73 2222
  87 2223
  77 2224
  72 2225
  82 2226
  84 2227
  79 2228
  63 2229
  73 2230
  66 2231
  70 2232
  91 2233
  69 2234
  73 2235
  60 2236
  75 2237
  80 2238
  72 2239
  74 2240
  72 2241
  68 2242
  82 2243
  70 2244
  74 2245
  73 2246
  79 2247
  69 2248
  69 2249
  63 2250
  66 2251
  52 2252
  81 2253
  69 2254
  66 2255
  73 2256
  78 2257
  72 2258
  69 2259
  74 2260
  65 2261
  66 2262
  74 2263
  69 2264
  68 2265
  64 2266
  68 2267
  76 2268
  79 2269
  69 2270
  62 2271
  77 2272
  69 2273
  68 2274
  66 2275
  71 2276
  72 2277
  62 2278
  84 2279
  61 2280
  65 2281
  60 2282
  66 2283
  59 2284
  68 2285
  80 2286
  76 2287
  64 2288
  66 2289
  61 2290
  59 2291
  61 2292
  65 2293
  62 2294
  75 2295
  75 2296
  69 2297
  63 2298
  71 2299
  48 2300
  62 2301
  76 2302
  68 2303
  66 2304
  67 2305
  63 2306
  63 2307
  63 2308
  63 2309
  55 2310
  68 2311
  62 2312
  68 2313
  71 2314
  55 2315
  77 2316
  62 2317
  67 2318
  65 2319
  70 2320
  61 2321
  54 2322
  72 2323
  76 2324
  53 2325
  59 2326
  71 2327
  56 2328
  55 2329
  78 2330
  64 2331
  55 2332
  57 2333
  67 2334
  60 2335
  60 2336
  61 2337
  75 2338
  59 2339
  56 2340
  75 2341
  90 2342
  49 2343
  62 2344
  72 2345
  83 2346
  61 2347
  35 2348
  64 2349
  92 2350
  55 2351
  71 2352
  57 2353
  49 2354
  51 2355
  73 2356
  70 2357
  56 2358
  48 2359
  64 2360
  67 2361
  72 2362
  52 2363
  62 2364
  63 2365
  60 2366
  65 2367
  75 2368
  62 2369
  55 2370
  58 2371
  71 2372
  60 2373
  65 2374
  71 2375
  64 2376
  54 2377
  59 2378
  52 2379
  59 2380
  39 2381
  64 2382
  56 2383
  49 2384
  70 2385
  62 2386
  48 2387
  63 2388
  56 2389
  54 2390
  71 2391
  53 2392
  70 2393
  60 2394
  43 2395
  47 2396
  63 2397
  61 2398
  53 2399
  53 2400
  62 2401
  63 2402
  56 2403
  58 2404
  67 2405
  60 2406
  61 2407
  57 2408
  60 2409
  55 2410
  58 2411
  64 2412
  63 2413
  56 2414
  68 2415
  48 2416
  68 2417
  57 2418
  55 2419
  53 2420
  62 2421
  55 2422
  59 2423
  56 2424
  51 2425
  69 2426
  65 2427
  50 2428
  51 2429
  50 2430
  38 2431
  58 2432
  41 2433
  53 2434
  68 2435
  64 2436
  59 2437
  55 2438
  54 2439
  65 2440
  44 2441
  55 2442
  60 2443
  67 2444
  63 2445
  63 2446
  45 2447
  61 2448
  52 2449
  43 2450
  45 2451
  51 2452
  60 2453
  48 2454
  48 2455
  50 2456
  51 2457
  57 2458
  48 2459
  54 2460
  64 2461
  49 2462
  41 2463
  55 2464
  56 2465
  48 2466
  54 2467
  43 2468
  56 2469
  48 2470
  58 2471
  46 2472
  46 2473
  58 2474
  53 2475
  42 2476
  47 2477
  65 2478
  43 2479
  53 2480
  50 2481
  54 2482
  52 2483
  44 2484
  57 2485
  41 2486
  54 2487
  63 2488
  62 2489
  46 2490
  53 2491
  42 2492
  42 2493
  43 2494
  62 2495
  53 2496
  55 2497
  42 2498
  62 2499
  45 2500
  45 2501
  48 2502
  53 2503
  48 2504
  48 2505
  49 2506
  50 2507
  46 2508
  59 2509
  44 2510
  39 2511
  43 2512
  58 2513
  58 2514
  45 2515
  36 2516
  45 2517
  51 2518
  65 2519
  56 2520
  46 2521
  40 2522
  47 2523
  46 2524
  37 2525
  42 2526
  44 2527
  41 2528
  54 2529
  50 2530
  49 2531
  53 2532
  55 2533
  48 2534
  52 2535
  55 2536
  47 2537
  52 2538
  39 2539
  51 2540
  61 2541
  59 2542
  46 2543
  50 2544
  42 2545
  41 2546
  46 2547
  43 2548
  64 2549
  53 2550
  50 2551
  56 2552
  49 2553
  46 2554
  47 2555
  61 2556
  40 2557
  55 2558
  38 2559
  56 2560
  40 2561
  45 2562
  48 2563
  46 2564
  44 2565
  38 2566
  54 2567
  40 2568
  55 2569
  33 2570
  34 2571
  47 2572
  39 2573
  54 2574
  50 2575
  42 2576
  46 2577
  50 2578
  37 2579
  45 2580
  42 2581
  46 2582
  45 2583
  48 2584
  46 2585
  52 2586
  46 2587
  46 2588
  45 2589
  21 2590
  43 2591
  29 2592
  48 2593
  50 2594
  42 2595
  45 2596
  51 2597
  45 2598
  47 2599
  47 2600
  50 2601
  46 2602
  39 2603
  35 2604
  41 2605
  48 2606
  33 2607
  43 2608
  49 2609
  47 2610
  60 2611
  49 2612
  49 2613
  40 2614
  45 2615
  44 2616
  39 2617
  39 2618
  37 2619
  41 2620
  48 2621
  43 2622
  46 2623
  48 2624
  38 2625
  36 2626
  43 2627
  39 2628
  35 2629
  35 2630
  43 2631
  43 2632
  33 2633
  36 2634
  47 2635
  46 2636
  56 2637
  40 2638
  41 2639
  40 2640
  48 2641
  36 2642
  47 2643
  48 2644
  39 2645
  47 2646
  39 2647
  47 2648
  42 2649
  34 2650
  45 2651
  39 2652
  36 2653
  41 2654
  41 2655
  31 2656
  49 2657
  36 2658
  41 2659
  43 2660
  29 2661
  29 2662
  32 2663
  37 2664
  39 2665
  53 2666
  50 2667
  47 2668
  52 2669
  43 2670
  46 2671
  58 2672
  35 2673
  51 2674
  36 2675
  36 2676
  40 2677
  32 2678
  33 2679
  35 2680
  43 2681
  42 2682
  38 2683
  37 2684
  36 2685
  48 2686
  35 2687
  35 2688
  38 2689
  40 2690
  45 2691
  47 2692
  38 2693
  36 2694
  37 2695
  25 2696
  36 2697
  32 2698
  34 2699
  56 2700
  35 2701
  44 2702
  48 2703
  41 2704
  32 2705
  36 2706
  40 2707
  33 2708
  41 2709
  39 2710
  35 2711
  39 2712
  26 2713
  31 2714
  29 2715
  41 2716
  41 2717
  45 2718
  37 2719
  32 2720
  31 2721
  37 2722
  50 2723
  38 2724
  30 2725
  38 2726
  34 2727
  36 2728
  42 2729
  36 2730
  25 2731
  44 2732
  27 2733
  38 2734
  40 2735
  41 2736
  38 2737
  38 2738
  28 2739
  34 2740
  32 2741
  47 2742
  36 2743
  34 2744
  32 2745
  32 2746
  32 2747
  42 2748
  37 2749
  32 2750
  44 2751
  41 2752
  31 2753
  33 2754
  40 2755
  37 2756
  39 2757
  26 2758
  35 2759
  30 2760
  34 2761
  36 2762
  33 2763
  28 2764
  35 2765
  48 2766
  43 2767
  32 2768
  29 2769
  25 2770
  24 2771
  39 2772
  39 2773
  34 2774
  39 2775
  29 2776
  38 2777
  28 2778
  31 2779
  24 2780
  30 2781
  29 2782
  28 2783
  45 2784
  28 2785
  30 2786
  30 2787
  38 2788
  33 2789
  45 2790
  34 2791
  35 2792
  31 2793
  33 2794
  33 2795
  21 2796
  27 2797
  31 2798
  31 2799
  34 2800
  27 2801
  28 2802
  28 2803
  32 2804
  33 2805
  43 2806
  27 2807
  40 2808
  27 2809
  36 2810
  35 2811
  39 2812
  31 2813
  23 2814
  27 2815
  34 2816
  29 2817
  39 2818
  29 2819
  36 2820
  43 2821
  24 2822
  30 2823
  28 2824
  25 2825
  33 2826
  38 2827
  31 2828
  36 2829
  37 2830
  31 2831
  36 2832
  19 2833
  28 2834
  24 2835
  32 2836
  28 2837
  25 2838
  35 2839
  42 2840
  22 2841
  28 2842
  28 2843
  23 2844
  22 2845
  23 2846
  43 2847
  28 2848
  30 2849
  33 2850
  27 2851
  27 2852
  37 2853
  34 2854
  36 2855
  32 2856
  31 2857
  27 2858
  32 2859
  38 2860
  31 2861
  34 2862
  33 2863
  32 2864
  32 2865
  29 2866
  31 2867
  25 2868
  27 2869
  27 2870
  30 2871
  25 2872
  28 2873
  28 2874
  22 2875
  22 2876
  28 2877
  31 2878
  25 2879
  31 2880
  22 2881
  23 2882
  24 2883
  23 2884
  32 2885
  32 2886
  34 2887
  30 2888
  36 2889
  26 2890
  20 2891
  31 2892
  30 2893
  17 2894
  26 2895
  21 2896
  33 2897
  30 2898
  29 2899
  31 2900
  35 2901
  24 2902
  33 2903
  22 2904
  26 2905
  34 2906
  23 2907
  36 2908
  19 2909
  29 2910
  48 2911
  27 2912
  28 2913
  23 2914
  34 2915
  28 2916
  31 2917
  24 2918
  26 2919
  32 2920
  28 2921
  29 2922
  35 2923
  30 2924
  26 2925
  23 2926
  37 2927
  34 2928
  22 2929
  27 2930
  19 2931
  29 2932
  22 2933
  31 2934
  23 2935
  27 2936
  26 2937
  29 2938
  36 2939
  21 2940
  24 2941
  24 2942
  24 2943
  24 2944
  28 2945
  23 2946
  28 2947
  32 2948
  24 2949
  33 2950
  30 2951
  23 2952
  29 2953
  26 2954
  30 2955
  39 2956
  29 2957
  20 2958
  34 2959
  25 2960
  22 2961
  33 2962
  29 2963
  22 2964
  35 2965
  19 2966
  27 2967
  22 2968
  25 2969
  40 2970
  28 2971
  24 2972
  19 2973
  25 2974
  21 2975
  16 2976
  19 2977
  28 2978
  31 2979
  28 2980
  35 2981
  20 2982
  28 2983
  27 2984
  20 2985
  29 2986
  25 2987
  28 2988
  21 2989
  27 2990
  28 2991
  22 2992
  21 2993
  22 2994
  18 2995
  26 2996
  31 2997
  20 2998
  35 2999
  20 3000
  28 3001
  25 3002
  24 3003
  37 3004
  30 3005
  27 3006
  35 3007
  22 3008
  23 3009
  18 3010
  24 3011
  32 3012
  24 3013
  24 3014
  16 3015
  27 3016
  24 3017
  21 3018
  25 3019
  21 3020
  30 3021
  19 3022
  27 3023
  23 3024
  21 3025
  26 3026
  31 3027
  24 3028
  31 3029
  32 3030
  19 3031
  28 3032
  24 3033
  22 3034
  20 3035
  24 3036
  24 3037
  18 3038
  21 3039
  22 3040
  25 3041
  18 3042
  19 3043
  24 3044
  19 3045
  33 3046
  25 3047
  25 3048
  27 3049
  21 3050
  20 3051
  26 3052
  16 3053
  20 3054
  25 3055
  14 3056
  22 3057
  30 3058
  25 3059
  30 3060
  30 3061
  24 3062
  27 3063
  21 3064
  21 3065
  30 3066
  19 3067
  26 3068
  25 3069
  20 3070
  24 3071
  32 3072
  24 3073
  23 3074
  18 3075
  19 3076
  24 3077
  23 3078
  16 3079
  18 3080
  21 3081
  27 3082
  24 3083
  32 3084
  22 3085
  25 3086
  22 3087
  21 3088
  19 3089
  24 3090
  23 3091
  18 3092
  18 3093
  20 3094
  20 3095
  25 3096
  15 3097
  27 3098
  20 3099
  23 3100
  19 3101
  26 3102
  23 3103
  22 3104
  22 3105
  18 3106
  23 3107
  23 3108
  22 3109
  28 3110
  23 3111
  17 3112
  21 3113
  27 3114
  30 3115
  25 3116
  32 3117
  21 3118
  17 3119
  21 3120
  20 3121
  19 3122
  14 3123
  23 3124
  25 3125
  21 3126
  23 3127
  23 3128
  17 3129
  23 3130
  29 3131
  25 3132
  31 3133
  26 3134
  16 3135
  17 3136
  23 3137
  23 3138
  21 3139
  18 3140
  21 3141
  14 3142
  26 3143
  20 3144
  24 3145
  17 3146
  19 3147
  21 3148
  23 3149
  20 3150
  18 3151
  16 3152
  17 3153
  31 3154
  28 3155
  21 3156
  19 3157
  31 3158
  21 3159
  17 3160
  16 3161
  24 3162
  14 3163
  20 3164
  19 3165
  20 3166
  17 3167
  24 3168
  20 3169
  21 3170
  20 3171
  13 3172
  23 3173
  15 3174
  17 3175
  20 3176
  27 3177
  18 3178
  26 3179
  25 3180
  12 3181
  18 3182
  11 3183
  11 3184
  21 3185
  18 3186
  18 3187
  17 3188
  20 3189
  18 3190
  23 3191
  23 3192
  27 3193
  13 3194
  16 3195
  22 3196
  21 3197
  25 3198
  15 3199
  23 3200
  19 3201
  23 3202
  22 3203
  16 3204
  23 3205
   7 3206
  25 3207
  23 3208
  13 3209
  18 3210
  16 3211
  23 3212
  21 3213
  26 3214
  25 3215
  24 3216
  21 3217
  12 3218
  20 3219
  24 3220
  22 3221
  22 3222
  15 3223
  14 3224
  18 3225
   5 3226
  20 3227
  11 3228
  14 3229
  12 3230
  22 3231
  15 3232
  16 3233
  12 3234
  11 3235
  17 3236
  10 3237
  22 3238
  20 3239
  16 3240
  11 3241
  29 3242
  18 3243
  19 3244
  13 3245
  15 3246
  18 3247
  13 3248
   9 3249
  16 3250
  15 3251
  15 3252
  20 3253
  16 3254
  16 3255
  16 3256
  16 3257
  21 3258
  13 3259
  12 3260
  12 3261
  12 3262
   8 3263
  16 3264
  21 3265
  16 3266
  17 3267
  18 3268
  16 3269
  15 3270
  22 3271
  21 3272
  12 3273
  15 3274
  14 3275
  21 3276
  21 3277
  17 3278
  18 3279
  12 3280
  11 3281
  18 3282
  18 3283
  17 3284
  23 3285
  16 3286
  15 3287
  14 3288
  19 3289
  22 3290
  20 3291
   9 3292
  17 3293
  19 3294
  13 3295
  13 3296
  15 3297
  15 3298
  15 3299
  15 3300
  17 3301
  17 3302
  16 3303
  20 3304
  16 3305
  19 3306
  15 3307
  18 3308
  15 3309
  16 3310
  21 3311
  21 3312
  12 3313
  20 3314
  17 3315
  21 3316
  18 3317
  20 3318
  11 3319
  21 3320
  13 3321
  12 3322
  17 3323
  15 3324
  15 3325
  11 3326
  22 3327
  17 3328
  12 3329
  18 3330
  14 3331
  17 3332
  21 3333
  15 3334
  17 3335
   5 3336
  16 3337
  10 3338
  18 3339
  13 3340
  12 3341
  15 3342
  20 3343
  12 3344
  13 3345
  19 3346
  19 3347
   9 3348
  13 3349
  19 3350
  16 3351
  17 3352
   9 3353
  13 3354
   9 3355
  19 3356
  11 3357
  14 3358
  18 3359
  20 3360
  13 3361
  20 3362
  15 3363
  12 3364
  24 3365
  21 3366
  13 3367
  13 3368
  10 3369
  10 3370
   9 3371
  14 3372
  20 3373
  17 3374
  13 3375
  13 3376
  13 3377
  14 3378
  25 3379
  14 3380
  22 3381
  13 3382
  15 3383
  25 3384
  16 3385
  14 3386
  16 3387
  13 3388
   9 3389
  12 3390
  16 3391
  11 3392
  12 3393
  15 3394
  13 3395
  16 3396
   8 3397
  11 3398
  19 3399
  10 3400
  12 3401
  18 3402
  13 3403
  17 3404
  13 3405
  14 3406
  16 3407
  17 3408
  15 3409
  18 3410
  16 3411
  12 3412
  14 3413
  10 3414
  16 3415
  14 3416
   7 3417
   9 3418
  14 3419
  19 3420
  12 3421
  18 3422
  17 3423
  18 3424
  20 3425
  12 3426
  20 3427
  13 3428
  12 3429
  12 3430
  13 3431
   9 3432
  16 3433
  13 3434
  12 3435
  12 3436
   6 3437
  11 3438
  19 3439
  21 3440
  14 3441
  17 3442
  14 3443
  12 3444
  12 3445
   8 3446
  13 3447
  14 3448
  18 3449
  13 3450
  17 3451
   8 3452
   7 3453
  12 3454
   8 3455
  10 3456
  18 3457
  14 3458
  12 3459
  15 3460
  19 3461
  11 3462
  16 3463
  16 3464
   9 3465
  14 3466
   8 3467
  17 3468
  11 3469
  14 3470
  13 3471
  14 3472
  15 3473
   8 3474
  11 3475
  13 3476
  12 3477
  21 3478
   9 3479
  22 3480
  15 3481
  13 3482
  25 3483
  17 3484
  12 3485
  21 3486
  11 3487
  12 3488
  14 3489
  10 3490
  15 3491
   9 3492
  19 3493
   7 3494
  13 3495
   9 3496
  12 3497
  14 3498
  12 3499
  11 3500
  13 3501
  14 3502
  15 3503
   9 3504
  12 3505
  12 3506
   9 3507
  11 3508
  12 3509
   9 3510
  17 3511
   6 3512
  16 3513
  14 3514
  11 3515
  12 3516
  20 3517
  19 3518
   8 3519
  12 3520
  15 3521
  10 3522
  11 3523
  19 3524
  14 3525
  14 3526
   8 3527
  11 3528
  11 3529
  15 3530
  16 3531
  12 3532
  14 3533
  12 3534
  11 3535
   9 3536
  10 3537
  16 3538
  10 3539
  22 3540
   4 3541
  11 3542
  13 3543
  12 3544
  18 3545
  15 3546
  14 3547
  14 3548
  14 3549
  14 3550
  20 3551
  17 3552
   9 3553
  12 3554
  14 3555
  13 3556
   9 3557
  12 3558
  15 3559
  12 3560
  10 3561
  19 3562
  12 3563
  11 3564
  12 3565
  10 3566
   9 3567
   9 3568
  13 3569
  16 3570
  12 3571
  14 3572
  13 3573
   7 3574
   7 3575
  13 3576
  13 3577
   9 3578
   9 3579
  12 3580
   8 3581
  11 3582
   7 3583
  12 3584
  18 3585
  12 3586
   9 3587
  11 3588
   8 3589
  14 3590
  12 3591
  11 3592
  11 3593
  17 3594
  12 3595
  13 3596
  12 3597
   7 3598
  15 3599
  10 3600
   8 3601
  16 3602
  12 3603
  14 3604
  11 3605
  16 3606
  15 3607
  12 3608
  15 3609
  12 3610
  18 3611
  13 3612
  11 3613
   6 3614
  17 3615
  16 3616
  11 3617
   8 3618
  11 3619
  13 3620
  11 3621
  15 3622
  12 3623
  11 3624
  11 3625
  11 3626
  11 3627
  15 3628
   9 3629
  10 3630
  10 3631
   9 3632
  15 3633
   6 3634
  11 3635
   7 3636
  12 3637
  11 3638
  16 3639
  14 3640
  15 3641
  20 3642
  14 3643
  11 3644
  12 3645
   9 3646
   9 3647
  13 3648
  13 3649
  10 3650
  16 3651
  10 3652
  15 3653
  17 3654
  15 3655
  16 3656
   7 3657
  14 3658
   5 3659
   7 3660
  13 3661
  10 3662
  12 3663
  11 3664
  11 3665
  12 3666
   5 3667
   7 3668
  16 3669
   8 3670
  11 3671
  12 3672
   9 3673
   6 3674
  11 3675
  11 3676
  10 3677
   6 3678
  11 3679
   9 3680
   9 3681
   8 3682
  10 3683
  10 3684
   9 3685
   7 3686
  13 3687
  10 3688
   7 3689
   5 3690
  14 3691
   7 3692
   8 3693
   9 3694
  12 3695
  13 3696
   7 3697
  11 3698
   9 3699
  11 3700
  14 3701
  11 3702
  10 3703
   6 3704
   9 3705
  13 3706
  12 3707
   7 3708
  15 3709
  10 3710
   9 3711
   8 3712
  14 3713
   7 3714
  13 3715
   9 3716
   9 3717
  14 3718
  12 3719
   5 3720
  11 3721
  12 3722
  13 3723
  16 3724
  12 3725
  10 3726
  12 3727
   7 3728
   8 3729
  14 3730
  13 3731
  11 3732
   5 3733
   5 3734
  14 3735
  15 3736
  16 3737
  17 3738
  10 3739
  13 3740
  13 3741
   9 3742
  11 3743
   9 3744
  11 3745
   6 3746
   7 3747
  13 3748
  11 3749
   8 3750
   8 3751
  11 3752
   9 3753
   7 3754
   6 3755
   5 3756
   8 3757
   7 3758
   7 3759
  14 3760
  17 3761
  13 3762
  11 3763
  12 3764
  12 3765
  10 3766
  11 3767
   5 3768
   6 3769
  12 3770
   4 3771
  12 3772
  13 3773
  10 3774
  11 3775
  10 3776
   3 3777
  12 3778
  14 3779
   8 3780
   7 3781
  10 3782
  12 3783
  11 3784
   7 3785
   5 3786
   9 3787
   5 3788
   8 3789
   7 3790
  11 3791
   9 3792
  10 3793
  10 3794
  11 3795
   5 3796
   7 3797
  11 3798
  14 3799
   7 3800
  12 3801
  15 3802
   4 3803
  11 3804
   9 3805
  12 3806
   6 3807
  11 3808
   5 3809
  11 3810
  14 3811
  10 3812
   7 3813
   5 3814
   3 3815
  11 3816
  12 3817
   6 3818
   5 3819
  10 3820
   5 3821
   6 3822
  11 3823
  12 3824
  13 3825
   5 3826
   4 3827
  10 3828
  10 3829
  11 3830
   7 3831
  12 3832
   3 3833
   3 3834
   7 3835
  10 3836
  13 3837
   8 3838
   6 3839
  12 3840
   6 3841
  12 3842
   9 3843
   7 3844
   8 3845
  14 3846
   7 3847
   9 3848
   9 3849
   5 3850
   7 3851
  11 3852
  11 3853
   8 3854
   2 3855
   8 3856
  10 3857
   6 3858
   7 3859
   6 3860
  10 3861
  16 3862
   9 3863
  11 3864
   5 3865
  10 3866
  12 3867
   7 3868
  10 3869
   7 3870
   7 3871
  10 3872
  11 3873
   8 3874
   5 3875
  13 3876
  12 3877
   8 3878
  11 3879
   7 3880
   9 3881
   8 3882
  12 3883
  12 3884
   9 3885
   3 3886
  12 3887
   8 3888
   8 3889
   7 3890
   3 3891
   9 3892
   9 3893
   7 3894
   9 3895
   8 3896
  11 3897
   9 3898
   4 3899
  13 3900
  11 3901
   9 3902
  15 3903
   6 3904
   9 3905
  12 3906
   8 3907
   5 3908
   7 3909
   8 3910
  11 3911
   5 3912
   9 3913
   9 3914
  13 3915
   7 3916
   8 3917
   5 3918
   6 3919
  11 3920
  12 3921
   6 3922
   7 3923
  14 3924
   7 3925
   8 3926
   6 3927
   5 3928
   9 3929
   8 3930
  15 3931
  13 3932
   7 3933
   8 3934
  11 3935
  15 3936
  10 3937
  10 3938
   9 3939
   7 3940
   5 3941
   9 3942
   3 3943
   4 3944
   4 3945
  12 3946
   9 3947
  10 3948
  11 3949
   6 3950
  10 3951
   7 3952
   3 3953
   4 3954
  10 3955
   7 3956
  13 3957
   8 3958
   8 3959
  13 3960
   8 3961
  12 3962
   9 3963
   6 3964
  10 3965
   9 3966
  13 3967
   6 3968
  12 3969
   8 3970
   6 3971
  10 3972
   8 3973
   6 3974
   8 3975
   3 3976
   9 3977
   9 3978
   7 3979
   6 3980
   6 3981
   5 3982
   5 3983
   6 3984
   6 3985
  10 3986
   8 3987
  11 3988
   4 3989
   7 3990
   5 3991
   4 3992
   5 3993
   5 3994
   6 3995
   7 3996
   3 3997
   6 3998
   5 3999
  10 4000
   4 4001
   8 4002
   9 4003
   3 4004
   9 4005
   7 4006
   6 4007
   6 4008
   6 4009
  10 4010
   4 4011
   5 4012
   6 4013
   6 4014
   3 4015
   7 4016
  12 4017
   3 4018
   7 4019
   7 4020
   6 4021
   6 4022
   6 4023
  12 4024
   6 4025
   7 4026
   9 4027
  10 4028
   5 4029
   9 4030
   7 4031
   6 4032
   8 4033
   3 4034
   9 4035
  10 4036
   8 4037
   9 4038
   4 4039
   3 4040
   5 4041
   7 4042
   9 4043
   7 4044
  10 4045
   6 4046
   9 4047
   6 4048
   9 4049
   4 4050
   7 4051
  10 4052
   7 4053
   8 4054
   4 4055
   9 4056
   9 4057
   5 4058
   9 4059
   8 4060
   6 4061
   5 4062
   5 4063
   6 4064
   7 4065
  14 4066
   7 4067
   4 4068
   6 4069
   7 4070
   3 4071
   4 4072
   4 4073
   7 4074
   8 4075
   9 4076
   7 4077
   9 4078
   7 4079
   6 4080
   4 4081
   6 4082
   6 4083
   5 4084
   8 4085
  13 4086
   7 4087
   8 4088
   6 4089
   5 4090
   8 4091
  10 4092
   6 4093
   6 4094
   5 4095
   6 4096
   5 4097
   8 4098
   8 4099
   7 4100
   3 4101
   4 4102
  11 4103
   7 4104
   4 4105
   6 4106
   6 4107
   9 4108
  11 4109
   9 4110
   7 4111
   6 4112
   5 4113
   5 4114
   6 4115
   3 4116
   6 4117
   2 4118
   8 4119
   8 4120
   6 4121
  10 4122
   5 4123
   5 4124
   4 4125
   3 4126
   4 4127
   5 4128
   7 4129
   4 4130
   8 4131
   7 4132
   7 4133
   5 4134
   5 4135
   5 4136
   9 4137
   6 4138
   7 4139
   5 4140
  10 4141
   8 4142
   4 4143
   9 4144
   5 4145
   3 4146
   6 4147
   5 4148
   8 4149
   6 4150
   4 4151
  10 4152
   5 4153
   3 4154
   5 4155
   7 4156
   2 4157
   4 4158
   3 4159
   6 4160
   4 4161
  10 4162
   7 4163
   9 4164
  11 4165
   3 4166
   9 4167
   3 4168
   4 4169
   2 4170
   6 4171
   5 4172
   2 4173
   4 4174
  11 4175
   6 4176
   3 4177
   8 4178
   6 4179
   4 4180
   9 4181
   5 4182
   3 4183
   1 4184
   8 4185
   5 4186
   5 4187
   5 4188
   2 4189
   1 4190
   5 4191
   4 4192
   2 4193
   5 4194
   9 4195
  12 4196
   9 4197
   4 4198
   8 4199
   4 4200
   8 4201
   3 4202
   8 4203
   4 4204
   5 4205
   4 4206
   7 4207
   9 4208
  10 4209
   3 4210
  10 4211
   5 4212
   2 4213
   8 4214
   4 4215
   4 4216
   6 4217
   9 4218
   5 4219
   4 4220
   6 4221
   5 4222
   6 4223
   5 4224
   7 4225
   6 4226
   4 4227
   4 4228
   3 4229
   6 4230
   8 4231
   6 4232
   6 4233
   6 4234
   5 4235
   2 4236
   7 4237
   3 4238
   3 4239
   3 4240
   7 4241
   8 4242
   8 4243
   2 4244
   6 4245
   6 4246
   8 4247
   5 4248
  10 4249
  10 4250
   5 4251
   4 4252
   5 4253
   6 4254
   3 4255
   6 4256
   5 4257
   4 4258
   8 4259
   5 4260
   5 4261
   7 4262
   8 4263
   3 4264
   7 4265
   8 4266
   3 4267
   5 4268
  11 4269
   2 4270
   2 4271
   4 4272
   3 4273
   7 4274
   6 4275
  14 4276
   2 4277
   3 4278
   5 4279
   7 4280
   3 4281
   4 4282
   3 4283
   6 4284
   4 4285
   5 4286
   9 4287
   4 4288
   4 4289
   9 4290
   6 4291
   6 4292
   5 4293
   5 4294
   9 4295
   5 4296
   5 4297
   4 4298
  11 4299
   4 4300
   2 4301
   5 4302
   8 4303
   2 4304
   5 4305
   3 4306
   8 4307
   8 4308
   6 4309
  14 4310
   6 4311
   9 4312
   2 4313
   6 4314
   5 4315
   4 4316
   4 4317
   4 4318
   6 4319
   3 4320
   5 4321
   5 4322
   3 4323
   2 4324
   4 4325
   3 4326
   7 4327
   3 4328
   3 4329
   9 4330
   6 4331
   5 4332
   2 4333
   7 4334
   6 4335
   6 4336
   8 4337
   6 4338
   3 4339
   9 4340
   3 4341
   6 4342
   4 4343
  11 4344
   6 4345
   7 4346
   5 4347
   3 4348
   7 4349
   8 4350
   2 4351
   5 4352
   5 4353
   1 4354
   4 4355
   5 4356
   3 4357
   6 4358
   4 4359
   3 4360
   5 4361
   2 4362
   7 4363
   5 4364
   7 4365
   2 4366
   4 4367
   1 4368
   3 4369
   8 4370
   5 4371
   8 4372
   7 4373
   3 4374
   3 4375
   6 4376
   2 4377
   3 4378
   3 4379
   6 4380
   4 4381
   8 4382
   3 4383
   8 4384
   3 4385
   2 4386
   6 4387
   3 4388
   2 4389
   3 4390
   3 4391
   6 4392
   1 4393
   3 4394
   2 4395
   5 4396
   7 4397
   5 4398
   2 4399
   6 4400
   2 4401
   7 4402
   4 4403
   4 4404
   3 4405
   3 4406
   9 4407
   6 4408
   5 4409
  10 4410
   7 4411
   2 4412
   5 4413
   5 4414
   7 4415
   4 4416
   3 4417
   4 4418
   5 4419
   3 4420
   4 4421
   4 4422
   4 4423
   5 4424
   4 4425
   3 4426
   7 4427
   7 4428
   6 4429
   9 4430
   3 4431
   8 4432
   4 4433
   4 4434
  10 4435
   7 4436
   4 4437
   5 4438
   4 4439
   5 4440
   5 4441
   3 4442
   1 4443
   6 4444
   3 4445
   6 4446
   3 4447
   4 4448
   4 4449
  12 4450
   4 4451
   5 4452
   2 4453
   1 4454
   1 4455
   1 4456
   3 4457
   5 4458
   5 4459
   4 4460
   6 4461
   6 4462
   3 4463
   3 4464
   5 4465
   4 4466
   3 4467
   6 4468
   3 4469
   5 4471
   4 4472
   6 4473
   6 4474
   2 4475
   7 4476
   4 4477
   3 4478
   4 4479
   6 4480
   3 4481
   7 4482
  10 4483
   5 4484
   2 4485
   6 4486
   2 4487
   6 4488
   3 4489
   3 4490
   3 4491
   4 4493
   4 4494
   6 4495
   1 4496
   8 4497
   6 4498
   3 4499
   7 4500
   7 4501
   8 4502
   6 4503
   6 4504
   3 4505
   8 4506
   7 4507
   3 4508
   2 4509
   5 4510
   5 4511
   4 4512
   5 4513
   6 4514
   5 4515
   2 4516
   2 4517
   7 4518
   3 4519
   7 4520
   2 4521
   7 4522
   2 4523
   1 4524
   4 4525
   7 4526
   4 4527
   5 4528
   7 4529
   4 4530
   4 4531
   4 4532
   5 4533
   3 4534
   2 4535
   2 4536
   7 4537
   5 4538
   5 4539
   3 4541
   2 4542
   5 4543
   6 4544
   5 4545
   5 4546
   6 4547
   5 4548
   4 4549
   1 4550
   1 4551
   4 4553
   5 4554
   4 4555
   6 4556
   4 4557
   6 4558
   2 4559
   6 4560
   4 4561
   4 4562
   3 4563
   5 4564
   7 4565
  10 4566
   3 4567
   4 4568
   7 4569
   4 4570
   7 4571
   8 4572
   5 4573
   3 4574
   7 4575
   3 4576
   5 4577
   3 4578
   5 4579
   6 4580
   4 4582
   4 4583
   2 4584
   4 4585
   3 4586
   6 4587
   3 4588
   5 4589
   3 4590
   3 4591
   7 4592
   5 4593
   5 4594
   3 4595
   2 4596
   3 4597
   4 4598
   3 4599
   7 4600
   1 4601
   1 4602
   4 4603
   4 4604
   3 4605
   5 4606
   5 4608
   4 4609
   4 4610
   8 4611
   4 4612
   1 4613
   3 4614
   6 4615
   4 4616
   5 4617
   9 4618
   7 4619
   4 4620
   2 4621
   4 4622
   3 4623
   1 4624
   3 4625
   7 4626
   6 4627
   3 4628
   1 4629
   2 4630
   4 4631
   1 4632
   5 4633
   2 4634
   4 4635
   1 4636
   4 4637
   5 4638
   4 4639
   4 4640
   8 4641
   3 4642
   5 4643
   4 4644
   5 4645
   4 4646
   3 4647
   3 4648
   1 4649
   4 4650
   4 4651
   5 4652
   2 4653
   4 4654
   7 4655
   2 4656
   5 4657
   5 4658
   3 4659
   5 4660
   2 4661
   4 4662
   2 4663
   6 4664
   4 4665
   3 4666
   4 4667
   4 4668
   5 4669
   1 4670
   5 4671
   3 4672
   3 4673
   6 4674
   3 4675
   5 4676
   9 4677
   4 4678
   3 4679
   3 4680
   9 4681
   4 4682
   3 4683
   2 4684
   2 4685
   1 4686
   1 4687
   4 4688
   5 4689
   2 4690
   3 4691
   4 4692
   3 4693
   6 4694
   1 4695
   2 4696
   5 4697
   3 4698
   4 4699
   2 4700
   3 4701
   6 4702
   4 4703
   4 4704
   2 4705
   5 4706
   2 4707
   3 4708
   3 4709
   5 4710
   5 4711
   2 4712
   4 4713
   2 4714
   4 4715
   3 4716
   4 4717
   4 4718
   2 4720
   4 4721
   2 4722
   2 4723
   2 4724
   2 4725
   3 4726
   7 4727
   3 4728
   4 4729
   4 4730
   3 4731
   2 4732
   4 4733
   2 4734
   5 4735
   4 4736
   2 4737
   7 4738
   8 4739
   3 4740
   4 4741
   7 4742
   2 4743
   1 4744
   2 4745
   2 4746
   3 4747
   5 4748
   5 4749
   7 4750
   5 4751
   5 4752
   4 4753
   5 4754
   2 4755
   7 4756
   5 4757
   4 4758
   6 4759
   4 4760
   3 4761
   4 4762
   5 4763
   2 4764
   4 4765
   5 4766
   4 4767
   2 4768
   4 4769
   5 4770
   1 4771
   3 4772
   4 4773
   2 4774
   4 4775
   7 4776
   1 4777
   4 4778
   3 4779
   4 4780
   7 4781
   1 4782
   1 4783
   2 4784
   4 4785
   3 4786
   4 4787
   6 4788
   1 4789
   3 4790
   2 4791
   2 4792
   2 4793
   5 4794
   3 4795
   3 4796
   4 4797
   2 4798
   2 4799
   2 4800
   6 4801
   5 4802
   1 4803
   5 4804
   3 4805
   4 4807
   1 4808
   2 4809
   2 4810
   2 4811
   3 4812
   2 4813
   1 4814
   2 4815
   1 4816
   4 4817
   2 4818
   3 4819
   1 4820
   1 4821
   3 4822
   3 4823
   3 4824
   6 4825
   3 4826
   2 4827
   3 4828
   2 4829
   3 4830
   9 4831
   3 4832
   7 4833
   2 4834
   4 4835
   3 4836
   2 4837
   3 4838
   1 4839
   3 4840
   5 4842
   2 4843
   4 4844
   3 4845
   2 4846
   4 4847
   5 4848
   2 4849
   4 4850
   1 4851
   5 4852
   1 4853
   3 4854
   5 4855
   1 4856
   2 4857
   1 4858
   4 4859
   5 4861
   6 4862
   3 4863
   3 4864
   4 4865
   3 4866
   3 4867
   4 4868
   4 4870
   2 4871
   3 4872
   4 4874
   3 4875
   3 4876
   1 4877
   1 4878
   1 4879
   4 4880
   1 4881
   3 4882
   3 4883
   3 4884
   4 4885
   2 4886
   5 4887
   3 4888
   3 4889
   2 4890
   2 4891
   7 4892
   1 4893
   6 4894
   3 4895
   1 4896
   6 4897
   1 4898
   2 4899
   4 4900
   3 4901
   4 4902
   5 4903
   1 4904
   1 4905
   3 4906
   1 4907
   4 4908
   7 4909
   2 4910
   1 4911
   2 4912
   6 4913
   4 4914
   7 4915
   2 4916
   4 4917
   3 4918
   3 4919
   1 4920
   3 4921
   3 4922
   2 4923
   2 4924
   6 4925
   3 4926
   3 4927
   3 4928
   1 4929
   2 4930
   3 4931
   3 4932
   2 4933
   1 4934
   5 4935
   3 4936
   1 4937
   3 4938
   4 4939
   2 4940
   5 4941
   2 4942
   3 4943
   5 4944
   5 4945
   4 4946
   3 4947
   4 4948
   5 4949
   1 4950
   1 4951
   2 4952
   1 4953
   4 4954
   3 4955
   6 4956
   3 4957
   3 4958
   3 4959
   2 4961
   3 4962
   4 4963
   4 4964
   3 4965
   4 4966
   2 4967
   3 4968
   2 4969
   8 4970
   6 4971
   2 4972
   2 4973
   4 4974
   2 4975
   4 4976
   4 4977
   5 4978
   2 4979
   1 4981
   1 4982
   1 4983
   2 4984
   4 4985
   4 4986
   1 4987
   3 4988
   4 4989
   2 4990
   1 4991
   1 4992
   5 4994
   5 4995
   2 4996
   6 4997
   2 4999
   3 5000
   4 5002
   3 5003
   2 5004
   2 5005
   2 5006
   3 5007
   5 5008
   1 5009
   4 5010
   3 5011
   5 5012
   1 5013
   1 5014
   2 5015
   3 5016
   2 5017
   2 5018
   3 5019
   2 5020
   5 5021
   3 5022
   4 5023
   4 5024
   2 5025
   2 5026
   3 5028
   2 5029
   3 5030
   2 5031
   2 5033
   3 5035
   4 5037
   5 5038
   3 5039
   1 5040
   4 5041
   2 5042
   4 5043
   1 5044
   2 5045
   5 5046
   3 5047
   1 5048
   2 5049
   3 5050
   3 5052
   2 5053
   5 5054
   2 5055
   1 5056
   1 5057
   3 5058
   3 5059
   2 5060
   1 5061
   2 5062
   2 5063
   2 5064
   1 5065
   3 5066
   4 5067
   4 5068
   3 5069
   1 5070
   1 5071
   2 5072
   2 5073
   2 5074
   2 5075
   2 5076
   4 5077
   3 5078
   1 5079
   3 5081
   1 5082
   1 5083
   1 5084
   4 5086
   5 5087
   1 5089
   2 5090
   1 5091
   6 5092
   1 5094
   4 5095
   4 5096
   1 5098
   2 5099
   4 5100
   1 5101
   1 5103
   2 5104
   2 5105
   3 5106
   1 5107
   2 5108
   1 5109
   1 5110
   1 5111
   2 5112
   4 5113
   6 5114
   4 5115
   6 5116
   3 5117
   4 5118
   2 5119
   2 5120
   5 5121
   1 5122
   3 5123
   3 5124
   2 5125
   3 5126
   2 5127
   4 5128
   2 5129
   2 5130
   3 5132
   1 5133
   1 5134
   2 5135
   4 5136
   2 5137
   1 5138
   3 5139
   1 5140
   1 5141
   1 5142
   2 5143
   2 5144
   1 5145
   1 5146
   3 5147
   4 5148
   3 5149
   1 5151
   2 5152
   2 5153
   4 5154
   1 5155
   3 5156
   2 5157
   5 5158
   2 5159
   1 5160
   2 5161
   3 5162
   6 5163
   4 5164
   3 5165
   4 5166
   2 5167
   3 5168
   2 5169
   3 5170
   2 5171
   4 5172
   2 5173
   2 5174
   1 5175
   3 5176
   2 5177
   3 5178
   2 5179
   1 5180
   2 5181
   3 5183
   1 5184
   2 5185
   5 5186
   3 5187
   1 5188
   3 5189
   1 5190
   1 5191
   3 5192
   4 5194
   3 5195
   2 5196
   2 5197
   3 5199
   2 5200
   2 5201
   1 5202
   3 5203
   2 5204
   2 5205
   1 5206
   4 5207
   3 5208
   2 5209
   3 5211
   2 5212
   1 5215
   4 5216
   1 5217
   1 5218
   3 5220
   3 5221
   5 5222
   1 5223
   4 5224
   2 5225
   3 5226
   4 5227
   2 5228
   3 5229
   3 5230
   2 5231
   3 5232
   2 5233
   3 5234
   1 5235
   1 5236
   1 5237
   3 5238
   4 5239
   3 5240
   3 5241
   3 5242
   2 5243
   2 5245
   3 5246
   3 5247
   4 5248
   1 5249
   2 5250
   4 5251
   2 5252
   2 5254
   5 5256
   2 5257
   7 5258
   2 5259
   2 5260
   3 5261
   2 5263
   1 5265
   3 5266
   2 5267
   1 5268
   2 5269
   3 5270
   4 5271
   3 5272
   3 5273
   2 5274
   1 5275
   2 5276
   5 5277
   3 5278
   2 5279
   3 5280
   3 5281
   4 5282
   6 5283
   4 5284
   5 5285
   2 5286
   3 5287
   1 5288
   1 5289
   2 5290
   1 5291
   2 5293
   4 5294
   2 5295
   3 5296
   1 5297
   2 5298
   6 5299
   5 5300
   2 5301
   2 5302
   3 5304
   6 5305
   3 5306
   2 5307
   3 5309
   1 5310
   3 5311
   3 5312
   2 5313
   1 5314
   1 5315
   2 5316
   2 5317
   3 5318
   3 5319
   3 5320
   3 5321
   1 5323
   2 5324
   2 5326
   3 5328
   2 5329
   1 5330
   1 5331
   1 5332
   5 5333
   2 5334
   2 5335
   2 5336
   1 5337
   2 5339
   2 5340
   1 5341
   1 5342
   1 5343
   2 5344
   1 5345
   4 5346
   2 5348
   4 5350
   1 5351
   3 5352
   6 5353
   1 5354
   3 5355
   1 5356
   1 5357
   2 5358
   3 5359
   1 5361
   3 5362
   4 5365
   1 5366
   3 5367
   1 5368
   2 5369
   2 5370
   4 5371
   2 5373
   3 5374
   4 5375
   2 5376
   3 5377
   1 5378
   1 5379
   4 5380
   1 5381
   1 5382
   1 5383
   1 5384
   3 5385
   2 5386
   1 5387
   3 5388
   3 5389
   1 5390
   2 5391
   1 5392
   2 5393
   1 5395
   6 5398
   1 5399
   3 5400
   1 5401
   2 5403
   2 5406
   4 5409
   3 5412
   1 5413
   4 5415
   1 5416
   2 5417
   2 5418
   3 5419
   3 5420
   1 5421
   4 5422
   2 5423
   2 5424
   2 5425
   2 5426
   2 5427
   1 5428
   3 5429
   2 5431
   1 5433
   3 5435
   5 5437
   3 5438
   7 5439
   2 5440
   2 5441
   1 5442
   1 5443
   2 5444
   1 5445
   2 5447
   4 5448
   4 5449
   2 5450
   1 5451
   4 5452
   2 5453
   1 5454
   3 5455
   1 5456
   2 5457
   3 5458
   1 5459
   2 5462
   2 5463
   1 5464
   1 5465
   2 5466
   1 5467
   3 5468
   2 5469
   1 5470
   1 5471
   2 5472
   2 5473
   3 5474
   1 5476
   2 5479
   2 5480
   3 5482
   2 5483
   2 5485
   3 5486
   4 5487
   5 5489
   6 5490
   4 5491
   3 5493
   1 5494
   1 5495
   1 5497
   3 5498
   6 5500
   1 5501
   2 5502
   8 5503
   3 5504
   1 5505
   2 5506
   2 5507
   2 5508
   2 5509
   2 5510
   3 5511
   1 5513
   3 5514
   3 5515
   4 5516
   1 5517
   1 5518
   1 5519
   3 5521
   3 5522
   1 5523
   4 5524
   6 5526
   1 5530
   1 5532
   1 5533
   2 5534
   1 5535
   3 5537
   2 5538
   3 5539
   2 5540
   3 5541
   2 5542
   1 5543
   2 5544
   2 5545
   1 5546
   3 5547
   3 5548
   1 5549
   3 5550
   4 5551
   5 5552
   1 5554
   2 5555
   2 5556
   3 5558
   1 5560
   1 5561
   1 5562
   2 5563
   2 5564
   3 5565
   2 5567
   1 5568
   1 5569
   2 5571
   1 5572
   3 5573
   1 5574
   2 5575
   1 5577
   2 5578
   3 5579
   2 5580
   3 5581
   1 5582
   1 5583
   3 5584
   1 5587
   1 5588
   4 5589
   2 5591
   1 5592
   2 5593
   1 5594
   3 5595
   4 5598
   1 5599
   1 5600
   1 5601
   1 5603
   2 5604
   1 5605
   3 5608
   2 5609
   1 5610
   3 5611
   3 5612
   1 5613
   2 5614
   3 5615
   2 5616
   1 5617
   2 5618
   1 5619
   1 5620
   1 5621
   5 5622
   1 5623
   3 5624
   2 5625
   1 5626
   1 5627
   2 5628
   4 5629
   2 5630
   2 5631
   1 5632
   4 5633
   4 5634
   1 5635
   2 5636
   2 5637
   1 5638
   1 5639
   3 5640
   2 5641
   4 5642
   2 5643
   5 5645
   2 5647
   4 5648
   1 5649
   1 5650
   2 5651
   1 5653
   1 5654
   2 5655
   1 5656
   1 5657
   1 5658
   2 5662
   1 5663
   2 5664
   1 5665
   1 5666
   1 5667
   2 5668
   3 5669
   4 5671
   1 5674
   1 5675
   3 5676
   1 5678
   1 5679
   2 5680
   1 5681
   1 5684
   1 5685
   3 5686
   2 5689
   1 5690
   2 5691
   3 5692
   2 5693
   4 5694
   1 5696
   1 5699
   2 5700
   1 5703
   2 5704
   2 5705
   1 5706
   1 5707
   1 5708
   1 5709
   1 5710
   1 5711
   1 5712
   2 5713
   3 5714
   3 5715
   1 5717
   2 5718
   1 5719
   2 5722
   4 5723
   1 5725
   1 5726
   1 5728
   1 5729
   1 5731
   1 5732
   1 5734
   1 5736
   1 5739
   1 5740
   2 5741
   3 5742
   4 5745
   1 5746
   1 5747
   3 5748
   1 5751
   3 5752
   2 5753
   2 5754
   2 5755
   2 5756
   1 5758
   1 5759
   1 5760
   1 5761
   3 5762
   2 5763
   2 5764
   1 5765
   1 5766
   1 5767
   3 5769
   2 5770
   1 5771
   2 5772
   3 5773
   1 5775
   1 5776
   3 5777
   1 5778
   2 5779
   1 5780
   1 5781
   1 5782
   3 5783
   1 5784
   1 5787
   2 5788
   2 5789
   2 5790
   1 5793
   3 5794
   2 5795
   2 5796
   6 5797
   1 5799
   2 5800
   3 5801
   1 5802
   2 5803
   1 5804
   3 5806
   3 5807
   3 5808
   2 5810
   1 5812
   1 5813
   2 5814
   2 5815
   2 5816
   3 5817
   1 5818
   3 5821
   2 5822
   3 5824
   1 5825
   1 5826
   1 5827
   1 5828
   2 5830
   1 5831
   4 5833
   2 5834
   1 5836
   4 5837
   2 5839
   1 5840
   4 5841
   1 5843
   1 5844
   2 5845
   1 5849
   1 5850
   1 5852
   1 5853
   1 5855
   1 5856
   1 5859
   1 5860
   2 5861
   1 5867
   2 5869
   2 5870
   3 5872
   3 5873
   1 5875
   1 5876
   1 5877
   1 5878
   2 5879
   1 5880
   1 5881
   2 5882
   1 5883
   1 5884
   1 5885
   1 5886
   1 5889
   3 5890
   2 5891
   1 5892
   2 5893
   1 5894
   1 5896
   2 5898
   2 5899
   3 5900
   2 5901
   1 5902
   1 5904
   2 5905
   1 5906
   1 5907
   2 5908
   1 5909
   2 5911
   3 5913
   3 5914
   1 5915
   1 5916
   1 5917
   2 5918
   3 5919
   1 5923
   1 5924
   1 5926
   1 5927
   1 5929
   1 5930
   2 5931
   1 5932
   1 5933
   2 5935
   2 5936
   1 5937
   2 5939
   2 5940
   1 5942
   2 5944
   2 5945
   2 5946
   1 5947
   3 5951
   1 5954
   1 5955
   1 5956
   2 5957
   1 5958
   2 5959
   3 5960
   1 5962
   1 5963
   2 5966
   1 5967
   2 5968
   2 5969
   1 5970
   4 5971
   1 5972
   1 5973
   2 5974
   3 5975
   1 5982
   2 5984
   1 5985
   1 5986
   1 5987
   1 5988
   2 5989
   3 5990
   1 5993
   1 5994
   1 5995
   1 5996
   1 5997
   2 5998
   1 6000
   1 6001
   1 6003
   1 6004
   1 6006
   1 6007
   2 6008
   1 6012
   2 6014
   2 6015
   2 6016
   2 6017
   1 6019
   1 6021
   1 6022
   1 6024
   2 6026
   1 6027
   2 6028
   2 6029
   2 6030
   3 6031
   2 6033
   1 6034
   2 6035
   1 6036
   1 6037
   1 6040
   1 6043
   2 6046
   4 6047
   2 6048
   1 6049
   2 6050
   1 6051
   1 6052
   1 6053
   2 6054
   1 6056
   2 6058
   1 6059
   2 6062
   2 6064
   1 6065
   2 6067
   2 6068
   1 6069
   1 6070
   3 6072
   2 6073
   1 6077
   2 6078
   2 6080
   2 6082
   2 6086
   1 6088
   1 6089
   1 6090
   1 6091
   2 6092
   1 6093
   1 6094
   3 6095
   1 6099
   3 6100
   3 6101
   1 6102
   1 6104
   2 6105
   1 6107
   2 6108
   1 6109
   1 6112
   2 6113
   2 6115
   1 6116
   3 6117
   1 6118
   1 6123
   2 6124
   2 6125
   2 6126
   1 6127
   1 6130
   1 6131
   1 6133
   2 6134
   5 6136
   2 6137
   1 6140
   2 6141
   1 6142
   2 6145
   1 6146
   1 6147
   2 6148
   1 6149
   1 6150
   1 6151
   1 6152
   1 6153
   2 6154
   3 6161
   1 6162
   1 6163
   1 6164
   1 6165
   4 6166
   1 6168
   2 6169
   1 6171
   2 6172
   1 6176
   1 6177
   3 6178
   1 6180
   1 6182
   3 6183
   3 6186
   3 6188
   3 6191
   1 6193
   1 6196
   1 6197
   3 6198
   1 6200
   1 6201
   1 6202
   1 6203
   3 6204
   1 6206
   1 6208
   1 6214
   1 6215
   2 6216
   1 6217
   1 6218
   2 6219
   1 6223
   2 6224
   1 6227
   1 6229
   1 6231
   3 6233
   1 6234
   2 6236
   2 6240
   1 6241
   4 6244
   3 6245
   1 6249
   1 6251
   1 6252
   3 6255
   3 6257
   2 6259
   1 6260
   1 6261
   1 6263
   2 6264
   1 6268
   1 6269
   2 6270
   2 6271
   1 6272
   3 6274
   2 6275
   1 6280
   1 6283
   1 6286
   1 6288
   1 6294
   3 6296
   1 6300
   1 6301
   1 6304
   2 6305
   1 6308
   2 6309
   1 6310
   1 6312
   2 6313
   1 6314
   3 6315
   3 6316
   1 6321
   2 6325
   1 6326
   1 6328
   1 6329
   1 6331
   1 6332
   1 6333
   1 6338
   2 6342
   1 6343
   2 6344
   1 6345
   1 6351
   1 6352
   1 6353
   3 6355
   1 6356
   3 6358
   2 6361
   1 6362
   1 6363
   2 6364
   1 6365
   2 6366
   2 6367
   1 6369
   1 6371
   1 6372
   2 6373
   1 6377
   3 6378
   1 6381
   2 6382
   2 6383
   2 6384
   2 6386
   2 6387
   2 6389
   2 6392
   2 6394
   2 6395
   2 6396
   1 6397
   1 6399
   3 6400
   1 6402
   1 6403
   2 6404
   1 6405
   3 6406
   2 6408
   1 6409
   1 6410
   1 6411
   3 6415
   1 6419
   2 6421
   2 6424
   3 6425
   1 6429
   1 6430
   1 6432
   1 6434
   1 6436
   1 6437
   1 6441
   2 6442
   1 6447
   1 6448
   1 6450
   1 6451
   1 6453
   1 6454
   1 6455
   2 6458
   1 6460
   1 6461
   1 6463
   1 6470
   1 6473
   3 6478
   2 6479
   1 6481
   1 6482
   1 6483
   1 6485
   2 6486
   1 6487
   1 6488
   2 6489
   1 6491
   1 6493
   1 6496
   1 6497
   1 6499
   1 6501
   1 6504
   1 6507
   2 6512
   2 6514
   1 6516
   1 6519
   3 6520
   1 6522
   2 6525
   2 6531
   1 6532
   1 6533
   1 6534
   2 6535
   1 6536
   1 6543
   1 6544
   1 6545
   1 6547
   1 6548
   3 6551
   1 6553
   2 6555
   1 6557
   3 6561
   1 6564
   1 6566
   1 6567
   1 6568
   1 6569
   1 6572
   2 6576
   2 6577
   1 6578
   1 6579
   2 6580
   2 6581
   2 6582
   1 6583
   1 6585
   1 6586
   2 6587
   2 6590
   1 6592
   2 6600
   1 6601
   1 6607
   1 6610
   1 6612
   1 6614
   2 6616
   2 6617
   5 6618
   1 6619
   3 6623
   1 6627
   1 6630
   1 6631
   1 6632
   1 6637
   1 6638
   1 6639
   1 6640
   1 6643
   1 6650
   1 6653
   1 6654
   1 6655
   2 6658
   2 6664
   1 6666
   1 6667
   1 6668
   1 6671
   1 6672
   1 6673
   2 6674
   2 6681
   1 6682
   1 6686
   1 6691
   1 6694
   2 6696
   1 6700
   1 6702
   2 6705
   1 6710
   1 6712
   2 6713
   1 6715
   2 6716
   2 6717
   1 6718
   1 6724
   2 6727
   1 6729
   2 6730
   2 6736
   2 6738
   1 6745
   1 6746
   1 6747
   1 6749
   1 6750
   1 6751
   1 6753
   1 6754
   1 6765
   1 6767
   1 6768
   1 6770
   1 6771
   1 6772
   1 6776
   2 6778
   2 6780
   1 6781
   1 6783
   2 6790
   1 6792
   1 6793
   1 6795
   2 6796
   1 6799
   1 6800
   1 6802
   1 6805
   1 6806
   1 6807
   2 6811
   1 6813
   1 6814
   1 6818
   2 6820
   2 6821
   1 6824
   1 6828
   1 6831
   1 6832
   1 6834
   2 6839
   1 6842
   1 6843
   1 6844
   1 6857
   1 6858
   3 6860
   1 6861
   1 6863
   2 6864
   1 6866
   1 6869
   2 6870
   1 6872
   1 6873
   1 6874
   1 6878
   1 6879
   1 6883
   1 6885
   1 6886
   1 6887
   1 6890
   1 6899
   3 6901
   1 6903
   1 6905
   2 6906
   1 6908
   1 6909
   1 6911
   1 6912
   1 6914
   1 6916
   1 6922
   1 6923
   1 6924
   2 6928
   1 6930
   1 6937
   1 6938
   1 6942
   1 6944
   1 6951
   1 6954
   2 6957
   1 6958
   1 6960
   1 6963
   1 6968
   1 6969
   1 6971
   1 6972
   1 6978
   1 6980
   1 6982
   1 6985
   1 6987
   1 6988
   1 6990
   1 6991
   1 6992
   1 6996
   1 7000
   1 7009
   1 7011
   1 7013
   1 7014
   2 7021
   1 7022
   1 7027
   1 7029
   1 7030
   2 7040
   1 7041
   2 7042
   2 7047
   1 7051
   2 7053
   1 7056
   1 7057
   1 7058
   1 7064
   2 7065
   1 7066
   1 7067
   1 7068
   1 7069
   1 7070
   1 7071
   1 7075
   1 7076
   3 7078
   1 7079
   1 7080
   1 7082
   1 7084
   1 7085
   1 7087
   1 7090
   1 7093
   1 7097
   4 7100
   1 7105
   1 7107
   1 7108
   1 7110
   2 7112
   2 7117
   1 7118
   1 7121
   1 7125
   2 7127
   1 7137
   1 7138
   1 7141
   1 7142
   1 7143
   2 7144
   2 7145
   1 7148
   1 7149
   2 7153
   1 7155
   1 7156
   1 7163
   1 7172
   1 7178
   1 7180
   1 7187
   1 7188
   1 7192
   1 7195
   1 7197
   1 7198
   1 7199
   1 7201
   1 7207
   1 7209
   2 7213
   1 7224
   1 7225
   1 7228
   2 7229
   2 7231
   1 7235
   1 7237
   1 7238
   1 7241
   2 7242
   1 7243
   1 7245
   1 7246
   1 7251
   1 7254
   1 7257
   1 7258
   2 7261
   3 7264
   3 7266
   1 7269
   1 7275
   1 7278
   1 7280
   1 7281
   1 7283
   2 7285
   1 7286
   1 7292
   1 7293
   2 7294
   1 7295
   1 7297
   1 7304
   2 7305
   1 7318
   1 7319
   1 7320
   1 7321
   1 7338
   1 7339
   1 7341
   1 7342
   1 7345
   1 7349
   2 7351
   2 7352
   1 7356
   1 7358
   1 7362
   2 7364
   1 7370
   1 7371
   1 7374
   1 7375
   1 7379
   1 7384
   2 7391
   1 7396
   1 7397
   1 7400
   1 7404
   1 7406
   1 7410
   1 7418
   1 7419
   1 7420
   1 7422
   1 7423
   1 7426
   1 7431
   1 7435
   1 7437
   1 7439
   1 7446
   1 7451
   2 7452
   1 7454
   1 7456
   1 7461
   1 7463
   1 7465
   2 7466
   1 7467
   1 7471
   1 7473
   1 7474
   1 7477
   1 7478
   2 7480
   1 7486
   1 7492
   1 7493
   1 7498
   1 7501
   1 7502
   1 7503
   1 7505
   1 7507
   1 7510
   1 7518
   1 7522
   2 7523
   1 7527
   1 7532
   1 7537
   1 7544
   1 7546
   2 7549
   1 7561
   1 7568
   1 7572
   2 7574
   1 7575
   2 7577
   1 7581
   1 7582
   1 7588
   2 7590
   1 7595
   1 7596
   2 7597
   1 7599
   1 7611
   2 7614
   1 7616
   1 7620
   1 7624
   1 7627
   1 7628
   2 7632
   2 7635
   1 7638
   1 7639
   1 7641
   2 7649
   1 7655
   1 7656
   1 7661
   1 7668
   1 7670
   1 7676
   3 7677
   1 7684
   1 7689
   1 7691
   1 7694
   1 7696
   2 7702
   1 7707
   1 7710
   1 7714
   1 7717
   2 7724
   1 7726
   1 7728
   1 7729
   1 7730
   1 7731
   1 7732
   3 7733
   1 7735
   1 7741
   1 7756
   1 7759
   2 7761
   1 7763
   1 7764
   1 7765
   1 7766
   1 7778
   1 7780
   2 7781
   1 7784
   1 7787
   1 7789
   1 7799
   1 7802
   2 7809
   1 7811
   1 7812
   1 7819
   1 7828
   1 7829
   1 7834
   1 7835
   2 7840
   1 7841
   1 7845
   1 7848
   1 7849
   1 7850
   1 7853
   1 7855
   1 7859
   1 7865
   3 7869
   1 7876
   1 7883
   1 7886
   1 7888
   1 7889
   1 7891
   1 7896
   1 7899
   1 7909
   2 7911
   2 7920
   1 7925
   2 7927
   1 7930
   1 7938
   1 7943
   1 7958
   1 7960
   1 7965
   1 7969
   1 7975
   1 7976
   1 7978
   1 7983
   1 7985
   1 7987
   1 7991
   1 7997
   1 7999
   1 8004
   1 8006
   1 8009
   1 8012
   1 8025
   1 8027
   1 8040
   1 8044
   1 8048
   1 8073
   1 8075
   1 8078
   2 8080
   2 8083
   1 8086
   1 8093
   1 8096
   2 8098
   1 8100
   2 8104
   1 8106
   1 8129
   1 8135
   1 8136
   1 8138
   1 8168
   1 8169
   1 8170
   1 8172
   1 8173
   1 8175
   1 8177
   1 8182
   1 8184
   1 8191
   1 8195
   2 8200
   1 8202
   2 8210
   1 8211
   1 8224
   1 8237
   1 8241
   1 8249
   1 8250
   1 8253
   1 8260
   1 8263
   1 8268
   1 8269
   1 8273
   1 8289
   1 8292
   1 8299
   2 8302
   1 8306
   1 8314
   1 8317
   1 8333
   1 8336
   1 8342
   1 8344
   1 8350
   1 8354
   1 8359
   1 8362
   1 8364
   1 8367
   1 8372
   1 8373
   1 8390
   1 8396
   1 8397
   1 8405
   1 8406
   1 8411
   2 8414
   1 8422
   1 8424
   1 8426
   1 8433
   1 8434
   1 8442
   1 8446
   1 8447
   1 8448
   1 8458
   1 8461
   1 8466
   1 8475
   3 8478
   1 8479
   1 8489
   1 8490
   1 8491
   1 8496
   1 8506
   1 8512
   1 8515
   1 8525
   2 8536
   1 8540
   1 8562
   1 8564
   1 8568
   1 8570
   1 8574
   1 8585
   1 8588
   1 8590
   1 8592
   1 8594
   1 8595
   1 8597
   1 8600
   1 8601
   1 8604
   1 8608
   1 8628
   1 8641
   1 8642
   1 8643
   1 8650
   1 8656
   1 8666
   1 8670
   1 8672
   1 8681
   1 8684
   1 8707
   1 8708
   1 8719
   1 8728
   2 8738
   1 8768
   1 8778
   1 8781
   1 8784
   1 8788
   1 8790
   1 8819
   1 8827
   1 8831
   1 8832
   1 8838
   1 8850
   1 8854
   1 8861
   1 8870
   1 8872
   1 8877
   1 8886
   1 8892
   1 8900
   1 8912
   1 8931
   1 8950
   1 8955
   1 8957
   1 8958
   1 8959
   1 8964
   1 8966
   1 8968
   1 8984
   1 8994
   1 8995
   1 8996
   1 9003
   1 9005
   1 9018
   1 9042
   2 9048
   1 9058
   1 9069
   1 9078
   2 9082
   1 9087
   1 9094
   1 9098
   2 9106
   1 9108
   1 9113
   1 9117
   1 9133
   1 9134
   1 9135
   1 9143
   1 9181
   1 9185
   1 9188
   2 9195
   1 9203
   1 9205
   1 9207
   1 9213
   1 9221
   1 9253
   1 9256
   1 9260
   1 9261
   1 9264
   1 9290
   2 9308
   1 9311
   1 9353
   1 9371
   1 9376
   1 9400
   1 9424
   1 9439
   1 9442
   1 9451
   1 9452
   1 9453
   1 9470
   1 9478
   1 9486
   1 9498
   1 9510
   1 9522
   2 9530
   1 9546
   1 9552
   1 9555
   1 9565
   1 9577
   2 9599
   1 9602
   1 9615
   1 9634
   1 9646
   1 9648
   1 9651
   1 9696
   1 9706
   1 9716
   1 9723
   1 9757
   1 9760
   1 9764
   1 9767
   1 9775
   1 9807
   1 9823
   1 9844
   1 9845
   1 9865
   1 9874
   1 9884
   1 9913
   1 9928
   1 9949
   1 9961
   1 10005
   1 10038
   2 10043
   1 10052
   1 10068
   1 10119
   1 10123
   1 10131
   1 10152
   1 10161
   1 10174
   1 10176
   1 10181
   1 10204
   1 10212
   1 10213
   1 10214
   1 10277
   1 10297
   1 10348
   1 10383
   1 10414
   1 10420
   1 10423
   1 10453
   1 10477
   1 10531
   1 10535
   1 10589
   1 10601
   1 10633
   1 10644
   1 10646
   1 10666
   1 10671
   1 10675
   1 10676
   1 10739
   1 10889
   1 10898
   1 10966
   2 10981
   1 11009
   1 11039
   2 11076
   1 11158
   1 11207
   1 11246
   1 11307
   1 11335
   1 11352
   1 11382
   1 11410
   1 11532
   1 11617
   1 11657
   1 11709
   1 11756
   1 11762
   1 11767
   1 11772
   1 11835
   1 11862
   1 11898
   1 11938
   1 11943
   1 11950
   1 11965
   1 12023
   1 12026
   1 12044
   1 12063
   1 12065
   1 12083
   1 12148
   1 12173
   1 12270
   1 12275
   1 12301
   1 12336
   1 12400
   1 12546
   1 12568
   1 12617
   1 12650
   1 12846
   1 12913
   2 13096
   1 13186
   1 13209
   1 13219
   1 13222
   1 13275
   1 13336
   1 13353
   1 13354
   1 13376
   1 13437
   1 13502
   1 13563
   1 13634
   1 13777
   1 13792
   1 14051
   1 14082
   1 14201
   1 14326
   1 14356
   1 14436
   1 14488
   1 14570
   1 14617
   1 14648
   1 14712
   1 14849
   1 14863
   1 15121
   1 15158
   1 15236
   1 15454
   1 15695
   1 16406
   1 16450
   1 17126
   1 17229
   1 17393
   1 18139
   1 18534
   1 18785
   1 19242
   1 22975
   1 23431
   1 23890
   1 25428
