-57280
-4072
8066
-6528
-2497
-937
1446
-1336
-473
-289
311
-275
-121
-66
120
-68
-52
211
-210
-4
-33
36
-36
-14
-22
43
-14
-19
-14
37
-23
-2
-6
15
-25
2
92
-96
0
-10
-3
-8
7
-18
7
9
-15
-2
24
-11
-19
15
-9
10
0
49
-60
3
-2
14
-18
2
0
-11
20
-18
16
-5
-14
3
9
-3
-3
53
